{
  "links": {
    "self": "http://localhost:3000/catalog.json",
    "next": "http://localhost:3000/catalog.json?page=2",
    "last": "http://localhost:3000/catalog.json?page=20"
  },
  "meta": {
    "pages": {
      "current_page": 1,
      "next_page": 2,
      "prev_page": null,
      "total_pages": 20,
      "limit_value": 10,
      "offset_value": 0,
      "total_count": 198,
      "first_page?": true,
      "last_page?": false
    }
  },
  "data": [
    {
      "id": "84912",
      "type": null,
      "attributes": {
        "title_tsim": {
          "id": "http://localhost:3000/catalog/84912#title_tsim",
          "type": "document_value",
          "attributes": {
            "value": "Nonlinear fishbone dynamics in spherical tokamaks",
            "label": "Title"
          }
        },
        "author_tesim": {
          "id": "http://localhost:3000/catalog/84912#author_tesim",
          "type": "document_value",
          "attributes": {
            "value": "Wang, F., Fu, G.Y., and Shen, W.",
            "label": "Author"
          }
        },
        "language_ssim": {
          "id": "http://localhost:3000/catalog/84912#language_ssim",
          "type": "document_value",
          "attributes": {
            "value": "en_US",
            "label": "Language"
          }
        },
        "genre_ssim": {
          "id": "http://localhost:3000/catalog/84912#genre_ssim",
          "type": "document_value",
          "attributes": {
            "value": "Dataset",
            "label": "Type"
          }
        },
        "issue_date_ssim": {
          "id": "http://localhost:3000/catalog/84912#issue_date_ssim",
          "type": "document_value",
          "attributes": {
            "value": "January 2017",
            "label": "Issue Date"
          }
        }
      },
      "links": {
        "self": "http://localhost:3000/catalog/84912"
      }
    },
    {
      "id": "90553",
      "type": null,
      "attributes": {
        "title_tsim": {
          "id": "http://localhost:3000/catalog/90553#title_tsim",
          "type": "document_value",
          "attributes": {
            "value": "Blob-hole correlation model for edge turbulence and comparisons with NSTX GPI data",
            "label": "Title"
          }
        },
        "author_tesim": {
          "id": "http://localhost:3000/catalog/90553#author_tesim",
          "type": "document_value",
          "attributes": {
            "value": "Myra, J.R., Zweben, S.J., and Russell, D.A.",
            "label": "Author"
          }
        },
        "language_ssim": {
          "id": "http://localhost:3000/catalog/90553#language_ssim",
          "type": "document_value",
          "attributes": {
            "value": "en_US",
            "label": "Language"
          }
        },
        "genre_ssim": {
          "id": "http://localhost:3000/catalog/90553#genre_ssim",
          "type": "document_value",
          "attributes": {
            "value": "Moving image",
            "label": "Type"
          }
        },
        "issue_date_ssim": {
          "id": "http://localhost:3000/catalog/90553#issue_date_ssim",
          "type": "document_value",
          "attributes": {
            "value": "July 2018",
            "label": "Issue Date"
          }
        }
      },
      "links": {
        "self": "http://localhost:3000/catalog/90553"
      }
    },
    {
      "id": "85707",
      "type": null,
      "attributes": {
        "title_tsim": {
          "id": "http://localhost:3000/catalog/85707#title_tsim",
          "type": "document_value",
          "attributes": {
            "value": "Energy Exchange Dynamics across L-H Transitions in NSTX",
            "label": "Title"
          }
        },
        "author_tesim": {
          "id": "http://localhost:3000/catalog/85707#author_tesim",
          "type": "document_value",
          "attributes": {
            "value": "Diallo, A., Banerjee, S., Zweben, S., and Stoltzfus-Dueck, T.",
            "label": "Author"
          }
        },
        "language_ssim": {
          "id": "http://localhost:3000/catalog/85707#language_ssim",
          "type": "document_value",
          "attributes": {
            "value": "en_US",
            "label": "Language"
          }
        },
        "genre_ssim": {
          "id": "http://localhost:3000/catalog/85707#genre_ssim",
          "type": "document_value",
          "attributes": {
            "value": "Software",
            "label": "Type"
          }
        },
        "issue_date_ssim": {
          "id": "http://localhost:3000/catalog/85707#issue_date_ssim",
          "type": "document_value",
          "attributes": {
            "value": "June 2017",
            "label": "Issue Date"
          }
        }
      },
      "links": {
        "self": "http://localhost:3000/catalog/85707"
      }
    },
    {
      "id": "88912",
      "type": null,
      "attributes": {
        "title_tsim": {
          "id": "http://localhost:3000/catalog/88912#title_tsim",
          "type": "document_value",
          "attributes": {
            "value": "A multi-machine scaling of halo current rotation",
            "label": "Title"
          }
        },
        "author_tesim": {
          "id": "http://localhost:3000/catalog/88912#author_tesim",
          "type": "document_value",
          "attributes": {
            "value": "Myers, C.E., Eidietis, N.W., Gerasimov, S.N., Gerhardt, S.Pl., Granetz, R.S., Hender, T.C., and Pautasso, G.",
            "label": "Author"
          }
        },
        "language_ssim": {
          "id": "http://localhost:3000/catalog/88912#language_ssim",
          "type": "document_value",
          "attributes": {
            "value": "en_US",
            "label": "Language"
          }
        },
        "genre_ssim": {
          "id": "http://localhost:3000/catalog/88912#genre_ssim",
          "type": "document_value",
          "attributes": {
            "value": "Image",
            "label": "Type"
          }
        },
        "issue_date_ssim": {
          "id": "http://localhost:3000/catalog/88912#issue_date_ssim",
          "type": "document_value",
          "attributes": {
            "value": "October 2017",
            "label": "Issue Date"
          }
        }
      },
      "links": {
        "self": "http://localhost:3000/catalog/88912"
      }
    },
    {
      "id": "88970",
      "type": null,
      "attributes": {
        "title_tsim": {
          "id": "http://localhost:3000/catalog/88970#title_tsim",
          "type": "document_value",
          "attributes": {
            "value": "Plasma measurements of the Fe XVII L-shell emission and blending with F VIII and F IX",
            "label": "Title"
          }
        },
        "author_tesim": {
          "id": "http://localhost:3000/catalog/88970#author_tesim",
          "type": "document_value",
          "attributes": {
            "value": "Beiersdorfer, P., Lepson, J.K., Gu, M.F., and Bitter, M.",
            "label": "Author"
          }
        },
        "language_ssim": {
          "id": "http://localhost:3000/catalog/88970#language_ssim",
          "type": "document_value",
          "attributes": {
            "value": "en_US",
            "label": "Language"
          }
        },
        "genre_ssim": {
          "id": "http://localhost:3000/catalog/88970#genre_ssim",
          "type": "document_value",
          "attributes": {
            "value": "Text",
            "label": "Type"
          }
        },
        "issue_date_ssim": {
          "id": "http://localhost:3000/catalog/88970#issue_date_ssim",
          "type": "document_value",
          "attributes": {
            "value": "November 2017",
            "label": "Issue Date"
          }
        }
      },
      "links": {
        "self": "http://localhost:3000/catalog/88970"
      }
    },
    {
      "id": "80489",
      "type": null,
      "attributes": {
        "title_tsim": {
          "id": "http://localhost:3000/catalog/80489#title_tsim",
          "type": "document_value",
          "attributes": {
            "value": "Observation of quasi-coherent edge fluctuations in Ohmic plasmas on NSTX",
            "label": "Title"
          }
        },
        "author_tesim": {
          "id": "http://localhost:3000/catalog/80489#author_tesim",
          "type": "document_value",
          "attributes": {
            "value": "Banerjee, S., A. Diallo, and S.J. Zweben",
            "label": "Author"
          }
        },
        "language_ssim": {
          "id": "http://localhost:3000/catalog/80489#language_ssim",
          "type": "document_value",
          "attributes": {
            "value": "en_US",
            "label": "Language"
          }
        },
        "genre_ssim": {
          "id": "http://localhost:3000/catalog/80489#genre_ssim",
          "type": "document_value",
          "attributes": {
            "value": "Collection",
            "label": "Type"
          }
        },
        "issue_date_ssim": {
          "id": "http://localhost:3000/catalog/80489#issue_date_ssim",
          "type": "document_value",
          "attributes": {
            "value": "April 2016",
            "label": "Issue Date"
          }
        }
      },
      "links": {
        "self": "http://localhost:3000/catalog/80489"
      }
    },
    {
      "id": "87751",
      "type": null,
      "attributes": {
        "title_tsim": {
          "id": "http://localhost:3000/catalog/87751#title_tsim",
          "type": "document_value",
          "attributes": {
            "value": "Sensitivity of WallDYN material migration modeling to uncertainties in mixed-material surface binding energies",
            "label": "Title"
          }
        },
        "author_tesim": {
          "id": "http://localhost:3000/catalog/87751#author_tesim",
          "type": "document_value",
          "attributes": {
            "value": "Nichols, J.H., Jaworski, M.A., and Schmid, K.",
            "label": "Author"
          }
        },
        "language_ssim": {
          "id": "http://localhost:3000/catalog/87751#language_ssim",
          "type": "document_value",
          "attributes": {
            "value": "en_US",
            "label": "Language"
          }
        },
        "genre_ssim": {
          "id": "http://localhost:3000/catalog/87751#genre_ssim",
          "type": "document_value",
          "attributes": {
            "value": "Article",
            "label": "Type"
          }
        },
        "issue_date_ssim": {
          "id": "http://localhost:3000/catalog/87751#issue_date_ssim",
          "type": "document_value",
          "attributes": {
            "value": "2017",
            "label": "Issue Date"
          }
        }
      },
      "links": {
        "self": "http://localhost:3000/catalog/87751"
      }
    },
    {
      "id": "78348",
      "type": null,
      "attributes": {
        "title_tsim": {
          "id": "http://localhost:3000/catalog/78348#title_tsim",
          "type": "document_value",
          "attributes": {
            "value": "Midplane neutral density profiles in the National Spherical Torus Experiment",
            "label": "Title"
          }
        },
        "author_tesim": {
          "id": "http://localhost:3000/catalog/78348#author_tesim",
          "type": "document_value",
          "attributes": {
            "value": "Stotler, D., F. Scotti, R.E. Bell, A. Diallo, B.P. LeBlanc, M. Podesta, A.L. Roquemore, and P.W. Ross",
            "label": "Author"
          }
        },
        "language_ssim": {
          "id": "http://localhost:3000/catalog/78348#language_ssim",
          "type": "document_value",
          "attributes": {
            "value": "en_US",
            "label": "Language"
          }
        },
        "genre_ssim": {
          "id": "http://localhost:3000/catalog/78348#genre_ssim",
          "type": "document_value",
          "attributes": {
            "value": "Interactive Resource",
            "label": "Type"
          }
        },
        "issue_date_ssim": {
          "id": "http://localhost:3000/catalog/78348#issue_date_ssim",
          "type": "document_value",
          "attributes": {
            "value": "August 2015",
            "label": "Issue Date"
          }
        }
      },
      "links": {
        "self": "http://localhost:3000/catalog/78348"
      }
    },
    {
      "id": "84484",
      "type": null,
      "attributes": {
        "title_tsim": {
          "id": "http://localhost:3000/catalog/84484#title_tsim",
          "type": "document_value",
          "attributes": {
            "value": "Theory based scaling of edge turbulence and implications for the scrape-off layer width",
            "label": "Title"
          }
        },
        "author_tesim": {
          "id": "http://localhost:3000/catalog/84484#author_tesim",
          "type": "document_value",
          "attributes": {
            "value": "Myra, J.R., Russell, D.A., and Zweben, S.J.",
            "label": "Author"
          }
        },
        "language_ssim": {
          "id": "http://localhost:3000/catalog/84484#language_ssim",
          "type": "document_value",
          "attributes": {
            "value": "en_US",
            "label": "Language"
          }
        },
        "genre_ssim": {
          "id": "http://localhost:3000/catalog/84484#genre_ssim",
          "type": "document_value",
          "attributes": {
            "value": "Undefined type",
            "label": "Type"
          }
        },
        "issue_date_ssim": {
          "id": "http://localhost:3000/catalog/84484#issue_date_ssim",
          "type": "document_value",
          "attributes": {
            "value": "November 2016",
            "label": "Issue Date"
          }
        }
      },
      "links": {
        "self": "http://localhost:3000/catalog/84484"
      }
    },
    {
      "id": "81748",
      "type": null,
      "attributes": {
        "title_tsim": {
          "id": "http://localhost:3000/catalog/81748#title_tsim",
          "type": "document_value",
          "attributes": {
            "value": "Linear gyrokinetic simulations of microinstabilities within the pedestal region of H-mode NSTX discharges in a highly shaped geometry",
            "label": "Title"
          }
        },
        "author_tesim": {
          "id": "http://localhost:3000/catalog/81748#author_tesim",
          "type": "document_value",
          "attributes": {
            "value": "Coury, M., Guttenfelder, W., Mikkelsen, D., Canik, J., Canal, G., Diallo, A., Kaye, S., Kramer, G., and Maingi, R.",
            "label": "Author"
          }
        },
        "language_ssim": {
          "id": "http://localhost:3000/catalog/81748#language_ssim",
          "type": "document_value",
          "attributes": {
            "value": "en_US",
            "label": "Language"
          }
        },
        "genre_ssim": {
          "id": "http://localhost:3000/catalog/81748#genre_ssim",
          "type": "document_value",
          "attributes": {
            "value": "Dataset",
            "label": "Type"
          }
        },
        "issue_date_ssim": {
          "id": "http://localhost:3000/catalog/81748#issue_date_ssim",
          "type": "document_value",
          "attributes": {
            "value": "June 2016",
            "label": "Issue Date"
          }
        }
      },
      "links": {
        "self": "http://localhost:3000/catalog/81748"
      }
    }
  ],
  "included": [
    {
      "type": "facet",
      "id": "domain_ssi",
      "attributes": {
        "label": "Domain",
        "items": [
          {
            "attributes": {
              "label": "Natural Sciences",
              "value": "Natural Sciences",
              "hits": 159
            },
            "links": {
              "self": "http://localhost:3000/catalog.json?f%5Bdomain_ssi%5D%5B%5D=Natural+Sciences"
            }
          },
          {
            "attributes": {
              "label": "Engineering",
              "value": "Engineering",
              "hits": 8
            },
            "links": {
              "self": "http://localhost:3000/catalog.json?f%5Bdomain_ssi%5D%5B%5D=Engineering"
            }
          },
          {
            "attributes": {
              "label": "Humanities",
              "value": "Humanities",
              "hits": 6
            },
            "links": {
              "self": "http://localhost:3000/catalog.json?f%5Bdomain_ssi%5D%5B%5D=Humanities"
            }
          },
          {
            "attributes": {
              "label": "Social Sciences",
              "value": "Social Sciences",
              "hits": 1
            },
            "links": {
              "self": "http://localhost:3000/catalog.json?f%5Bdomain_ssi%5D%5B%5D=Social+Sciences"
            }
          }
        ]
      },
      "links": {
        "self": "http://localhost:3000/catalog/facet/domain_ssi.json"
      }
    },
    {
      "type": "facet",
      "id": "genre_ssim",
      "attributes": {
        "label": "Genre",
        "items": [
          {
            "attributes": {
              "label": "Dataset",
              "value": "Dataset",
              "hits": 184
            },
            "links": {
              "self": "http://localhost:3000/catalog.json?f%5Bgenre_ssim%5D%5B%5D=Dataset"
            }
          },
          {
            "attributes": {
              "label": "moving image",
              "value": "moving image",
              "hits": 10
            },
            "links": {
              "self": "http://localhost:3000/catalog.json?f%5Bgenre_ssim%5D%5B%5D=moving+image"
            }
          },
          {
            "attributes": {
              "label": "Software",
              "value": "Software",
              "hits": 6
            },
            "links": {
              "self": "http://localhost:3000/catalog.json?f%5Bgenre_ssim%5D%5B%5D=Software"
            }
          },
          {
            "attributes": {
              "label": "Image",
              "value": "Image",
              "hits": 4
            },
            "links": {
              "self": "http://localhost:3000/catalog.json?f%5Bgenre_ssim%5D%5B%5D=Image"
            }
          },
          {
            "attributes": {
              "label": "text",
              "value": "text",
              "hits": 3
            },
            "links": {
              "self": "http://localhost:3000/catalog.json?f%5Bgenre_ssim%5D%5B%5D=text"
            }
          },
          {
            "attributes": {
              "label": "collection",
              "value": "collection",
              "hits": 2
            },
            "links": {
              "self": "http://localhost:3000/catalog.json?f%5Bgenre_ssim%5D%5B%5D=collection"
            }
          },
          {
            "attributes": {
              "label": "Article",
              "value": "Article",
              "hits": 1
            },
            "links": {
              "self": "http://localhost:3000/catalog.json?f%5Bgenre_ssim%5D%5B%5D=Article"
            }
          },
          {
            "attributes": {
              "label": "Research",
              "value": "Research",
              "hits": 1
            },
            "links": {
              "self": "http://localhost:3000/catalog.json?f%5Bgenre_ssim%5D%5B%5D=Research"
            }
          },
          {
            "attributes": {
              "label": "interactive resource",
              "value": "interactive resource",
              "hits": 1
            },
            "links": {
              "self": "http://localhost:3000/catalog.json?f%5Bgenre_ssim%5D%5B%5D=interactive+resource"
            }
          }
        ]
      },
      "links": {
        "self": "http://localhost:3000/catalog/facet/genre_ssim.json"
      }
    },
    {
      "type": "facet",
      "id": "publisher_ssim",
      "attributes": {
        "label": "Publisher",
        "items": [
          {
            "attributes": {
              "label": "Princeton Plasma Physics Laboratory, Princeton University",
              "value": "Princeton Plasma Physics Laboratory, Princeton University",
              "hits": 128
            },
            "links": {
              "self": "http://localhost:3000/catalog.json?f%5Bpublisher_ssim%5D%5B%5D=Princeton+Plasma+Physics+Laboratory%2C+Princeton+University"
            }
          },
          {
            "attributes": {
              "label": "Princeton University",
              "value": "Princeton University",
              "hits": 11
            },
            "links": {
              "self": "http://localhost:3000/catalog.json?f%5Bpublisher_ssim%5D%5B%5D=Princeton+University"
            }
          },
          {
            "attributes": {
              "label": "Geochimica et Cosmochimica Acta",
              "value": "Geochimica et Cosmochimica Acta",
              "hits": 1
            },
            "links": {
              "self": "http://localhost:3000/catalog.json?f%5Bpublisher_ssim%5D%5B%5D=Geochimica+et+Cosmochimica+Acta"
            }
          },
          {
            "attributes": {
              "label": "Geophysical Research Letters",
              "value": "Geophysical Research Letters",
              "hits": 1
            },
            "links": {
              "self": "http://localhost:3000/catalog.json?f%5Bpublisher_ssim%5D%5B%5D=Geophysical+Research+Letters"
            }
          },
          {
            "attributes": {
              "label": "Journal of Advances in Modeling Earth Systems",
              "value": "Journal of Advances in Modeling Earth Systems",
              "hits": 1
            },
            "links": {
              "self": "http://localhost:3000/catalog.json?f%5Bpublisher_ssim%5D%5B%5D=Journal+of+Advances+in+Modeling+Earth+Systems"
            }
          },
          {
            "attributes": {
              "label": "NASA",
              "value": "NASA",
              "hits": 1
            },
            "links": {
              "self": "http://localhost:3000/catalog.json?f%5Bpublisher_ssim%5D%5B%5D=NASA"
            }
          },
          {
            "attributes": {
              "label": "Princeton University Department of Astrophysical Sciences",
              "value": "Princeton University Department of Astrophysical Sciences",
              "hits": 1
            },
            "links": {
              "self": "http://localhost:3000/catalog.json?f%5Bpublisher_ssim%5D%5B%5D=Princeton+University+Department+of+Astrophysical+Sciences"
            }
          },
          {
            "attributes": {
              "label": "Princeton University Lewis-Sigler Institute",
              "value": "Princeton University Lewis-Sigler Institute",
              "hits": 1
            },
            "links": {
              "self": "http://localhost:3000/catalog.json?f%5Bpublisher_ssim%5D%5B%5D=Princeton+University+Lewis-Sigler+Institute"
            }
          },
          {
            "attributes": {
              "label": "Princeton University. Department of Mechanical and Aerospace Engineering",
              "value": "Princeton University. Department of Mechanical and Aerospace Engineering",
              "hits": 1
            },
            "links": {
              "self": "http://localhost:3000/catalog.json?f%5Bpublisher_ssim%5D%5B%5D=Princeton+University.+Department+of+Mechanical+and+Aerospace+Engineering"
            }
          },
          {
            "attributes": {
              "label": "Princeton University. Mechanical and Aerospace Engineering Department.",
              "value": "Princeton University. Mechanical and Aerospace Engineering Department.",
              "hits": 1
            },
            "links": {
              "self": "http://localhost:3000/catalog.json?f%5Bpublisher_ssim%5D%5B%5D=Princeton+University.+Mechanical+and+Aerospace+Engineering+Department."
            }
          }
        ]
      },
      "links": {
        "self": "http://localhost:3000/catalog/facet/publisher_ssim.json"
      }
    },
    {
      "type": "search_field",
      "id": "all_fields",
      "attributes": {
        "label": "All Fields"
      },
      "links": {
        "self": "http://localhost:3000/catalog.json?search_field=all_fields"
      }
    },
    {
      "type": "search_field",
      "id": "title",
      "attributes": {
        "label": "Title"
      },
      "links": {
        "self": "http://localhost:3000/catalog.json?search_field=title"
      }
    },
    {
      "type": "search_field",
      "id": "author",
      "attributes": {
        "label": "Author"
      },
      "links": {
        "self": "http://localhost:3000/catalog.json?search_field=author"
      }
    },
    {
      "type": "search_field",
      "id": "subject",
      "attributes": {
        "label": "Subject"
      },
      "links": {
        "self": "http://localhost:3000/catalog.json?search_field=subject"
      }
    },
    {
      "type": "sort",
      "id": "relevance",
      "attributes": {
        "label": "relevance"
      },
      "links": {
        "self": "http://localhost:3000/catalog.json?sort=relevance"
      }
    },
    {
      "type": "sort",
      "id": "year-desc",
      "attributes": {
        "label": "year"
      },
      "links": {
        "self": "http://localhost:3000/catalog.json?sort=year-desc"
      }
    },
    {
      "type": "sort",
      "id": "author",
      "attributes": {
        "label": "author"
      },
      "links": {
        "self": "http://localhost:3000/catalog.json?sort=author"
      }
    },
    {
      "type": "sort",
      "id": "title_si asc, pub_date_si desc",
      "attributes": {
        "label": "title"
      },
      "links": {
        "self": "http://localhost:3000/catalog.json?sort=title_si+asc%2C+pub_date_si+desc"
      }
    }
  ]
}
